{
  "states": [
    {
      "id": 10,
      "accountId": "eb2c8d80-d1cb-11e5-899a-a78c285e0f24",
      "stateTypeId": "8bafdbb0-e0a2-11e5-929d-63ff56235dbf",
      "name": "flashpattern",
      "type": "FREE_FORM",
      "description": "Pattern of the flash"
    },
    {
      "id": 11,
      "accountId": "eb2c8d80-d1cb-11e5-899a-a78c285e0f24",
      "stateTypeId": "9edbd900-e0a2-11e5-9a41-63ff56235dbf",
      "name": "colorr",
      "type": "RANGE",
      "description": "R value of the RGB color"
    },
    {
      "id": 12,
      "accountId": "eb2c8d80-d1cb-11e5-899a-a78c285e0f24",
      "stateTypeId": "aaa5e230-e0a2-11e5-85bd-63ff56235dbf",
      "name": "colorg",
      "type": "RANGE",
      "description": "G value of the RGB color"
    },
    {
      "id": 1,
      "accountId": "eb2c8d80-d1cb-11e5-899a-a78c285e0f24",
      "stateTypeId": "b79112d0-e0a2-11e5-bd54-63ff56235dbf",
      "name": "colorb",
      "type": "RANGE",
      "description": "B value of the RGB color"
    },
    {
      "id": 13,
      "accountId": "eb2c8d80-d1cb-11e5-899a-a78c285e0f24",
      "stateTypeId": "1282a0f0-e0a3-11e5-97ed-63ff56235dbf",
      "name": "latitude",
      "type": "RANGE",
      "description": "location latitude"
    },
    {
      "id": 14,
      "accountId": "eb2c8d80-d1cb-11e5-899a-a78c285e0f24",
      "stateTypeId": "1cbbd0f0-e0a3-11e5-9b9a-63ff56235dbf",
      "name": "longitude",
      "type": "FREE_FORM",
      "description": "location longitude"
    },
    {
      "accountId": "eb2c8d80-d1cb-11e5-899a-a78c285e0f24",
      "stateTypeId": "Auto-generated ID",
      "name": "new1",
      "type": "RANGE",
      "description": "new 23",
      "stateTypId": "Njd7BIyW-d688-11e5-9e5a-63ff56235dbf",
      "id": 92
    },
    {
      "accountId": "eb2c8d80-d1cb-11e5-899a-a78c285e0f24",
      "stateTypeId": "Auto-generated ID",
      "name": "brightness 2",
      "type": "RANGE",
      "description": "it is brigt",
      "stateTypId": "KyBOuhzS-d688-11e5-9e5a-63ff56235dbf",
      "id": 93
    },
    {
      "accountId": "eb2c8d80-d1cb-11e5-899a-a78c285e0f24",
      "stateTypeId": "Auto-generated ID",
      "name": "sample brightness",
      "type": "RANGE",
      "description": "sample",
      "stateTypId": "iSbtmJTk-d688-11e5-9e5a-63ff56235dbf",
      "id": 94
    },
    {
      "accountId": "eb2c8d80-d1cb-11e5-899a-a78c285e0f24",
      "stateTypeId": "Auto-generated ID",
      "name": "brightness",
      "type": "RANGE",
      "description": "some brightness",
      "stateTypId": "Mg0BvxEi-d688-11e5-9e5a-63ff56235dbf",
      "id": 95
    },
    {
      "accountId": "eb2c8d80-d1cb-11e5-899a-a78c285e0f24",
      "stateTypeId": "Auto-generated ID",
      "name": "sample range",
      "type": "RANGE",
      "description": "jdhfhdsu",
      "stateTypId": "ZkWkXYqJ-d688-11e5-9e5a-63ff56235dbf",
      "id": 96
    },
    {
      "accountId": "eb2c8d80-d1cb-11e5-899a-a78c285e0f24",
      "stateTypeId": "Auto-generated ID",
      "name": "sample enumeration",
      "type": "ENUMERATION",
      "description": "sdsadas",
      "stateTypId": "KVszDRFV-d688-11e5-9e5a-63ff56235dbf",
      "id": 97
    },
    {
      "accountId": "eb2c8d80-d1cb-11e5-899a-a78c285e0f24",
      "stateTypeId": "Auto-generated ID",
      "name": "sample free form",
      "type": "FREE_FORM",
      "description": "sdsdss",
      "stateTypId": "7xtycyrx-d688-11e5-9e5a-63ff56235dbf",
      "id": 98
    },
    {
      "accountId": "eb2c8d80-d1cb-11e5-899a-a78c285e0f24",
      "stateTypeId": "Auto-generated ID",
      "name": "sample command",
      "type": "COMMAND",
      "description": "cdcd",
      "stateTypId": "h7Bodcdi-d688-11e5-9e5a-63ff56235dbf",
      "id": 99
    },
    {
      "accountId": "eb2c8d80-d1cb-11e5-899a-a78c285e0f24",
      "stateTypeId": "Auto-generated ID",
      "name": "sample date",
      "type": "DATE",
      "description": "dsa",
      "stateTypId": "gu1TU9sa-d688-11e5-9e5a-63ff56235dbf",
      "id": 100
    },
    {
      "accountId": "eb2c8d80-d1cb-11e5-899a-a78c285e0f24",
      "stateTypeId": "Auto-generated ID",
      "name": "new sample 666",
      "type": "RANGE",
      "description": "fdscds",
      "stateTypId": "EHy0rkFF-d688-11e5-9e5a-63ff56235dbf",
      "id": 101
    },
    {
      "accountId": "eb2c8d80-d1cb-11e5-899a-a78c285e0f24",
      "stateTypeId": "TtZW54xm-d688-11e5-9e5a-63ff56235dbf",
      "name": "csdcdscsd",
      "type": "FREE_FORM",
      "description": "dcdca",
      "rn": "",
      "updatedBy": "prasanna.kumar@company.com",
      "id": 102
    }
  ],
  "sensors": [
    {
      "id": 5,
      "accountId": "eb2c8d80-d1cb-11e5-899a-a78c285e0f24",
      "sensorTypeId": "4dcc01a0-e3fb-11e5-94cc-6538fcf5e441",
      "name": "motionff",
      "description": "Motion Sensor"
    },
    {
      "id": 7,
      "accountId": "eb2c8d80-d1cb-11e5-899a-a78c285e0f24",
      "sensorTypeId": "67c75000-e3fb-11e5-a5ac-6538fcf5e441",
      "name": "tripwire",
      "description": "Tripwire"
    },
    {
      "id": 8,
      "accountId": "eb2c8d80-d1cb-11e5-899a-a78c285e0f24",
      "sensorTypeId": "71251420-e3fb-11e5-87af-6538fcf5e441",
      "name": "distance",
      "description": "Distance Sensor"
    },
    {
      "id": 9,
      "accountId": "eb2c8d80-d1cb-11e5-899a-a78c285e0f24",
      "sensorTypeId": "7bad9ca0-e3fb-11e5-b69a-6538fcf5e441",
      "name": "temperature",
      "description": "Temperature Sensor"
    },
    {
      "id": 10,
      "accountId": "eb2c8d80-d1cb-11e5-899a-a78c285e0f24",
      "sensorTypeId": "69028040-e0a7-11e5-8bf3-63ff56235dbf",
      "name": "moisture",
      "description": "Moisture Sensor"
    },
    {
      "id": 11,
      "accountId": "eb2c8d80-d1cb-11e5-899a-a78c285e0f24",
      "sensorTypeId": "73edc230-e0a7-11e5-992e-63ff56235dbf",
      "name": "gas",
      "description": "Gas Sensor"
    },
    {
      "id": 12,
      "accountId": "eb2c8d80-d1cb-11e5-899a-a78c285e0f24",
      "sensorTypeId": "7de50730-e0a7-11e5-95fd-63ff56235dbf",
      "name": "velocity",
      "description": "Speed Sensor"
    },
    {
      "id": 13,
      "accountId": "eb2c8d80-d1cb-11e5-899a-a78c285e0f24",
      "sensorTypeId": "e75dc2b0-e0a7-11e5-bdd4-63ff56235dbf",
      "name": "accelerate",
      "description": "Accelerate Sensor"
    },
    {
      "id": 14,
      "accountId": "eb2c8d80-d1cb-11e5-899a-a78c285e0f24",
      "sensorTypeId": "f4d35900-e0a7-11e5-bba0-63ff56235dbf",
      "name": "weight",
      "description": "Weight Sensor"
    },
    {
      "id": 15,
      "accountId": "eb2c8d80-d1cb-11e5-899a-a78c285e0f24",
      "sensorTypeId": "fed52550-e0a7-11e5-a97f-63ff56235dbf",
      "name": "pressure",
      "description": "Pressure Sensor"
    },
    {
      "id": 16,
      "accountId": "eb2c8d80-d1cb-11e5-899a-a78c285e0f24",
      "sensorTypeId": "08e06780-e0a8-11e5-988f-63ff56235dbf",
      "name": "sonic",
      "description": "Sonic Sensor"
    },
    {
      "id": 17,
      "accountId": "eb2c8d80-d1cb-11e5-899a-a78c285e0f24",
      "sensorTypeId": "e46fe470-d689-11e5-bcc2-63ff56235dbf",
      "name": "alcohol",
      "description": "Alcohol Sensor"
    },
    {
      "id": 18,
      "accountId": "",
      "thingTypeId": "",
      "name": "new sensor",
      "description": "new"
    },
    {
      "id": 19,
      "accountId": "",
      "thingTypeId": "",
      "name": "aaaaa",
      "description": "aaaa"
    },
    {
      "id": 20,
      "accountId": "",
      "thingTypeId": "",
      "name": "eg",
      "description": "fg"
    },
    {
      "sensorTypeId": "",
      "accountId": "global",
      "name": "fds",
      "description": "sq",
      "updatedBy": "newuser@company.com",
      "lastUpdated": "",
      "rn": "",
      "id": 21
    },
    {
      "sensorTypeId": "",
      "accountId": "global",
      "name": "adsf",
      "description": "fs",
      "updatedBy": "newuser@company.com",
      "lastUpdated": "",
      "rn": "",
      "id": 22
    }
  ],
  "rules": [
    {
      "ruleId": "",
      "name": "sdf",
      "description": "sdf",
      "enabled": true,
      "expression": "",
      "condition": [
        {
          "thingName": "truck-03",
          "type": "single",
          "dataType": "",
          "property": "ontime",
          "operator": ">",
          "operand": "s",
          "labelName": ""
        }
      ],
      "actions": [],
      "updatedBy": "",
      "id": 1
    },
    {
      "ruleId": "",
      "name": "vcx",
      "description": "wefwewf",
      "enabled": true,
      "expression": "",
      "condition": [
        {
          "thingName": "",
          "type": "single",
          "dataType": "",
          "property": "ontime",
          "operator": ">",
          "operand": "c",
          "labelName": "street-03"
        }
      ],
      "actions": [],
      "updatedBy": "",
      "id": 2
    }
  ],
  "things": [
    {
      "accountId": "eb2c8d80-d1cb-11e5-899a-a78c285e0f24",
      "thingTypeId": "57febb70-dcc8-11e5-9ed1-63ff56235dbf",
      "name": "switch",
      "description": "turn on/off power",
      "states": [
        {
          "name": "status",
          "typeValues": [
            "on",
            "off"
          ]
        },
        {
          "name": "ontime"
        }
      ]
    },
    {
      "accountId": "eb2c8d80-d1cb-11e5-899a-a78c285e0f24",
      "thingTypeId": "70f284e0-dcc8-11e5-957b-63ff56235dbf",
      "name": "smartlight",
      "parent": "switch",
      "category": "light",
      "description": "smart light",
      "states": [
        {
          "name": "color",
          "typeValues": [
            "red",
            "green",
            "yellow"
          ]
        },
        {
          "name": "brightness",
          "typeValues": [
            "0",
            "100"
          ]
        }
      ],
      "sensors": [
        "temperature",
        "motion"
      ]
    },
    {
      "accountId": "eb2c8d80-d1cb-11e5-899a-a78c285e0f24",
      "thingTypeId": "8cc36400-e0a1-11e5-816f-63ff56235dbf",
      "name": "gelight",
      "parent": "smartlight",
      "category": "light",
      "oemName": "ge",
      "description": "ge light",
      "states": [
        {
          "name": "flashstatus",
          "typeValues": [
            "on",
            "off"
          ]
        }
      ],
      "sensors": [
        "present"
      ]
    },
    {
      "name": "new",
      "description": "nn",
      "id": "c17d1005-16c2-412e-8faf-edb8cb2eb8bb"
    },
    {
      "accountId": "",
      "thingTypeId": "",
      "id": "dea47d58-c2be-49a6-88a9-50a8aaef92a6",
      "name": "bla",
      "parent": [
        "- none -",
        "light",
        "switch",
        "smartlight"
      ],
      "category": [
        "- none -",
        "color",
        "light"
      ],
      "description": "fvv",
      "states": [
        {
          "name": "status",
          "typeValues": []
        },
        {
          "name": "status",
          "typeValues": []
        }
      ],
      "stateTypesElements": [
        {
          "type": "div",
          "key": null,
          "ref": null,
          "props": {
            "className": "status-state gen dynamic",
            "children": [
              {
                "type": "input",
                "key": null,
                "ref": null,
                "props": {
                  "id": "tag-value-0",
                  "type": "text",
                  "className": "form-control tag-plate"
                },
                "_owner": null,
                "_store": {}
              },
              {
                "type": "span",
                "key": null,
                "ref": null,
                "props": {
                  "className": "add-tag pointer",
                  "children": "+"
                },
                "_owner": null,
                "_store": {}
              }
            ]
          },
          "_owner": null,
          "_store": {}
        },
        {
          "type": "div",
          "key": null,
          "ref": null,
          "props": {
            "className": "status-state gen dynamic",
            "children": [
              {
                "type": "input",
                "key": null,
                "ref": null,
                "props": {
                  "id": "tag-value-1",
                  "type": "text",
                  "className": "form-control tag-plate"
                },
                "_owner": null,
                "_store": {}
              },
              {
                "type": "span",
                "key": null,
                "ref": null,
                "props": {
                  "className": "add-tag pointer",
                  "children": "+"
                },
                "_owner": null,
                "_store": {}
              }
            ]
          },
          "_owner": null,
          "_store": {}
        }
      ],
      "sensors": []
    },
    {
      "accountId": "",
      "thingTypeId": "",
      "id": "6b577b1c-476d-48a9-80f7-db9e3dd40ec6",
      "name": "blablabla",
      "parent": [
        "- none -",
        "light",
        "switch",
        "smartlight"
      ],
      "category": [
        "- none -",
        "color",
        "light"
      ],
      "description": "blabladescr",
      "states": [
        {
          "name": "status",
          "typeValues": []
        }
      ],
      "stateTypesElements": [
        {
          "type": "div",
          "key": null,
          "ref": null,
          "props": {
            "className": "status-state gen dynamic",
            "children": [
              {
                "type": "input",
                "key": null,
                "ref": null,
                "props": {
                  "id": "tag-value-0",
                  "type": "text",
                  "className": "form-control tag-plate"
                },
                "_owner": null,
                "_store": {}
              },
              {
                "type": "span",
                "key": null,
                "ref": null,
                "props": {
                  "className": "add-tag pointer",
                  "children": "+"
                },
                "_owner": null,
                "_store": {}
              }
            ]
          },
          "_owner": null,
          "_store": {}
        }
      ],
      "sensors": [
        "brightness",
        "motion",
        "present",
        "tripwire",
        "distance",
        "temperature",
        "moisture",
        "gas",
        "velocity",
        "accelerate",
        "weight",
        "pressure",
        "sonic",
        "alcohol",
        "new sensor"
      ]
    },
    {
      "accountId": "",
      "thingTypeId": "",
      "id": "cb473155-8d41-41c0-88a2-cbee4575a158",
      "name": "blab",
      "parent": [
        "- none -",
        "light",
        "switch",
        "smartlight"
      ],
      "category": [
        "- none -",
        "color",
        "light"
      ],
      "description": "wvvv",
      "states": [
        {
          "name": "status",
          "typeValues": []
        }
      ],
      "stateTypesElements": [
        {
          "type": "div",
          "key": null,
          "ref": null,
          "props": {
            "className": "status-state gen dynamic",
            "children": [
              {
                "type": "input",
                "key": null,
                "ref": null,
                "props": {
                  "id": "tag-value-0",
                  "type": "text",
                  "className": "form-control tag-plate"
                },
                "_owner": null,
                "_store": {}
              },
              {
                "type": "span",
                "key": null,
                "ref": null,
                "props": {
                  "className": "add-tag pointer",
                  "children": "+"
                },
                "_owner": null,
                "_store": {}
              }
            ]
          },
          "_owner": null,
          "_store": {}
        }
      ],
      "sensors": [
        "brightness",
        "motion"
      ]
    },
    {
      "accountId": "",
      "thingTypeId": "",
      "id": "d05619b6-9fc4-4cb3-adaa-742d4abf8b71",
      "name": "name",
      "parent": [
        "- none -",
        "light",
        "switch",
        "smartlight"
      ],
      "category": [
        "- none -",
        "color",
        "light"
      ],
      "description": "",
      "states": [
        {
          "name": "brightness",
          "typeValues": [
            "0",
            "100"
          ]
        },
        {
          "name": "status",
          "typeValues": []
        }
      ],
      "stateTypesElements": [
        {
          "type": "div",
          "key": null,
          "ref": null,
          "props": {
            "className": "brightness-state dynamic",
            "children": [
              {
                "type": "input",
                "key": null,
                "ref": null,
                "props": {
                  "type": "number",
                  "min": "0",
                  "placeholder": "min",
                  "className": "form-control min-brightness"
                },
                "_owner": null,
                "_store": {}
              },
              {
                "type": "span",
                "key": null,
                "ref": null,
                "props": {
                  "className": "form-control",
                  "children": " to "
                },
                "_owner": null,
                "_store": {}
              },
              {
                "type": "input",
                "key": null,
                "ref": null,
                "props": {
                  "type": "number",
                  "min": "0",
                  "placeholder": "max",
                  "className": "form-control max-brightness"
                },
                "_owner": null,
                "_store": {}
              }
            ]
          },
          "_owner": null,
          "_store": {}
        },
        {
          "type": "div",
          "key": null,
          "ref": null,
          "props": {
            "className": "status-state gen dynamic",
            "children": [
              {
                "type": "input",
                "key": null,
                "ref": null,
                "props": {
                  "id": "tag-value-1",
                  "type": "text",
                  "className": "form-control tag-plate"
                },
                "_owner": null,
                "_store": {}
              },
              {
                "type": "span",
                "key": null,
                "ref": null,
                "props": {
                  "className": "add-tag pointer",
                  "children": "+"
                },
                "_owner": null,
                "_store": {}
              }
            ]
          },
          "_owner": null,
          "_store": {}
        }
      ],
      "sensors": []
    },
    {
      "accountId": "",
      "thingTypeId": "",
      "id": "fb139a0c-4c4e-4bb9-bf2a-9da504750f64",
      "name": "namen",
      "parent": [
        "- none -",
        "light",
        "switch",
        "smartlight"
      ],
      "category": [
        "- none -",
        "color",
        "light"
      ],
      "description": "",
      "states": [
        {
          "name": "brightness",
          "typeValues": [
            "0",
            "22"
          ]
        },
        {
          "name": "status",
          "typeValues": [
            "0",
            "10"
          ]
        },
        {
          "name": "colorr",
          "typeValues": [
            "red"
          ]
        }
      ],
      "stateTypesElements": [
        {
          "type": "div",
          "key": null,
          "ref": null,
          "props": {
            "className": "brightness-state dynamic",
            "children": [
              {
                "type": "input",
                "key": null,
                "ref": null,
                "props": {
                  "type": "number",
                  "min": "0",
                  "placeholder": "min",
                  "className": "form-control min-brightness"
                },
                "_owner": null,
                "_store": {}
              },
              {
                "type": "span",
                "key": null,
                "ref": null,
                "props": {
                  "className": "form-control",
                  "children": " to "
                },
                "_owner": null,
                "_store": {}
              },
              {
                "type": "input",
                "key": null,
                "ref": null,
                "props": {
                  "type": "number",
                  "min": "0",
                  "placeholder": "max",
                  "className": "form-control max-brightness"
                },
                "_owner": null,
                "_store": {}
              }
            ]
          },
          "_owner": null,
          "_store": {}
        },
        {
          "type": "div",
          "key": null,
          "ref": null,
          "props": {
            "className": "status-state gen dynamic",
            "children": [
              {
                "type": "input",
                "key": null,
                "ref": null,
                "props": {
                  "id": "tag-value-1",
                  "type": "text",
                  "className": "form-control tag-plate"
                },
                "_owner": null,
                "_store": {}
              },
              {
                "type": "span",
                "key": null,
                "ref": null,
                "props": {
                  "className": "add-tag pointer",
                  "children": "+"
                },
                "_owner": null,
                "_store": {}
              }
            ]
          },
          "_owner": null,
          "_store": {}
        },
        {
          "type": "div",
          "key": null,
          "ref": null,
          "props": {
            "className": "colorr-state gen dynamic",
            "children": [
              {
                "type": "input",
                "key": null,
                "ref": null,
                "props": {
                  "id": "tag-value-2",
                  "type": "text",
                  "className": "form-control tag-plate"
                },
                "_owner": null,
                "_store": {}
              },
              {
                "type": "span",
                "key": null,
                "ref": null,
                "props": {
                  "className": "add-tag pointer",
                  "children": "+"
                },
                "_owner": null,
                "_store": {}
              }
            ]
          },
          "_owner": null,
          "_store": {}
        }
      ],
      "sensors": [
        "brightness",
        "motion"
      ]
    },
    {
      "accountId": "",
      "thingTypeId": "",
      "id": "3045dee3-7b2d-4c17-b81f-24cee150b7c0",
      "name": "TESTthing",
      "parent": "smartlight",
      "category": "color",
      "description": "description for dummies",
      "states": [
        {
          "name": "status",
          "typeValues": [
            "ok",
            "not ok"
          ]
        },
        {
          "name": "sample range",
          "typeValues": [
            "10",
            "100"
          ]
        },
        {
          "name": "sample date",
          "typeValues": []
        },
        {
          "name": "sample command",
          "typeValues": []
        },
        {
          "name": "status",
          "typeValues": []
        }
      ],
      "stateTypesElements": [
        {
          "type": "div",
          "key": null,
          "ref": null,
          "props": {
            "className": "status-state gen dynamic",
            "children": [
              {
                "type": "input",
                "key": null,
                "ref": null,
                "props": {
                  "id": "tag-value-0",
                  "type": "text",
                  "className": "form-control tag-plate"
                },
                "_owner": null,
                "_store": {}
              },
              {
                "type": "span",
                "key": null,
                "ref": null,
                "props": {
                  "className": "add-tag pointer",
                  "children": "+"
                },
                "_owner": null,
                "_store": {}
              }
            ]
          },
          "_owner": null,
          "_store": {}
        },
        {
          "type": "div",
          "key": null,
          "ref": null,
          "props": {
            "className": "brightness-state dynamic",
            "children": [
              {
                "type": "input",
                "key": null,
                "ref": null,
                "props": {
                  "type": "number",
                  "min": "0",
                  "placeholder": "min",
                  "className": "form-control min-brightness"
                },
                "_owner": null,
                "_store": {}
              },
              {
                "type": "span",
                "key": null,
                "ref": null,
                "props": {
                  "className": "form-control",
                  "children": " to "
                },
                "_owner": null,
                "_store": {}
              },
              {
                "type": "input",
                "key": null,
                "ref": null,
                "props": {
                  "type": "number",
                  "min": "0",
                  "placeholder": "max",
                  "className": "form-control max-brightness"
                },
                "_owner": null,
                "_store": {}
              }
            ]
          },
          "_owner": null,
          "_store": {}
        },
        {
          "type": "span",
          "key": null,
          "ref": null,
          "props": {
            "children": "This will be filled automatically"
          },
          "_owner": null,
          "_store": {}
        },
        {
          "type": "div",
          "key": null,
          "ref": null,
          "props": {
            "className": "sample command-state gen dynamic",
            "children": [
              {
                "type": "input",
                "key": null,
                "ref": null,
                "props": {
                  "id": "tag-value-3",
                  "type": "text",
                  "className": "form-control tag-plate"
                },
                "_owner": null,
                "_store": {}
              },
              {
                "type": "span",
                "key": null,
                "ref": null,
                "props": {
                  "className": "add-tag pointer",
                  "children": "+"
                },
                "_owner": null,
                "_store": {}
              }
            ]
          },
          "_owner": null,
          "_store": {}
        },
        {
          "type": "div",
          "key": null,
          "ref": null,
          "props": {
            "className": "status-state gen dynamic",
            "children": [
              {
                "type": "input",
                "key": null,
                "ref": null,
                "props": {
                  "id": "tag-value-4",
                  "type": "text",
                  "className": "form-control tag-plate"
                },
                "_owner": null,
                "_store": {}
              },
              {
                "type": "span",
                "key": null,
                "ref": null,
                "props": {
                  "className": "add-tag pointer",
                  "children": "+"
                },
                "_owner": null,
                "_store": {}
              }
            ]
          },
          "_owner": null,
          "_store": {}
        }
      ],
      "sensors": [
        "brightness",
        "motion"
      ]
    },
    {
      "accountId": "",
      "thingTypeId": "",
      "id": "fd03c046-3596-41d4-8928-3f7473c93484",
      "name": "name_lowercase",
      "parent": "switch",
      "category": "light",
      "description": "description",
      "states": [
        {
          "name": "status",
          "typeValues": [
            "ok",
            "notok"
          ]
        },
        {
          "name": "sample range",
          "typeValues": [
            "0",
            "100"
          ]
        },
        {
          "name": "sample date",
          "typeValues": []
        }
      ],
      "stateTypesElements": [
        {
          "type": "div",
          "key": null,
          "ref": null,
          "props": {
            "className": "status-state gen dynamic",
            "children": [
              {
                "type": "input",
                "key": null,
                "ref": null,
                "props": {
                  "id": "tag-value-0",
                  "type": "text",
                  "className": "form-control tag-plate"
                },
                "_owner": null,
                "_store": {}
              },
              {
                "type": "span",
                "key": null,
                "ref": null,
                "props": {
                  "className": "add-tag pointer",
                  "children": "+"
                },
                "_owner": null,
                "_store": {}
              }
            ]
          },
          "_owner": null,
          "_store": {}
        },
        {
          "type": "div",
          "key": null,
          "ref": null,
          "props": {
            "className": "brightness-state dynamic",
            "children": [
              {
                "type": "input",
                "key": null,
                "ref": null,
                "props": {
                  "type": "number",
                  "min": "0",
                  "placeholder": "min",
                  "className": "form-control min-brightness"
                },
                "_owner": null,
                "_store": {}
              },
              {
                "type": "span",
                "key": null,
                "ref": null,
                "props": {
                  "className": "form-control",
                  "children": " to "
                },
                "_owner": null,
                "_store": {}
              },
              {
                "type": "input",
                "key": null,
                "ref": null,
                "props": {
                  "type": "number",
                  "min": "0",
                  "placeholder": "max",
                  "className": "form-control max-brightness"
                },
                "_owner": null,
                "_store": {}
              }
            ]
          },
          "_owner": null,
          "_store": {}
        },
        {
          "type": "span",
          "key": null,
          "ref": null,
          "props": {
            "children": "This will be filled in automatically"
          },
          "_owner": null,
          "_store": {}
        }
      ],
      "sensors": [
        "brightness",
        "motion"
      ]
    },
    {
      "accountId": "",
      "thingTypeId": "",
      "id": "af21007a-c7fc-4dd5-a289-d6f69f5988db",
      "name": "test 369 ",
      "parent": [
        "- none -",
        "light",
        "switch",
        "smartlight"
      ],
      "category": [
        "- none -",
        "color",
        "light"
      ],
      "description": "sample test",
      "states": [
        {
          "name": "sample brightness",
          "typeValues": [
            "0",
            "200"
          ]
        },
        {
          "name": "sample enumeration",
          "typeValues": [
            "onnnn",
            "offf"
          ]
        },
        {
          "name": "sample free form",
          "typeValues": [
            "sdfdsfdas.22"
          ]
        },
        {
          "name": "sample command",
          "typeValues": []
        },
        {
          "name": "sample date",
          "typeValues": []
        }
      ],
      "stateTypesElements": [
        {
          "type": "div",
          "key": null,
          "ref": null,
          "props": {
            "className": "brightness-state dynamic",
            "children": [
              {
                "type": "input",
                "key": null,
                "ref": null,
                "props": {
                  "type": "number",
                  "min": "0",
                  "placeholder": "min",
                  "className": "form-control min-brightness"
                },
                "_owner": null,
                "_store": {}
              },
              {
                "type": "span",
                "key": null,
                "ref": null,
                "props": {
                  "className": "form-control",
                  "children": " to "
                },
                "_owner": null,
                "_store": {}
              },
              {
                "type": "input",
                "key": null,
                "ref": null,
                "props": {
                  "type": "number",
                  "min": "0",
                  "placeholder": "max",
                  "className": "form-control max-brightness"
                },
                "_owner": null,
                "_store": {}
              }
            ]
          },
          "_owner": null,
          "_store": {}
        },
        {
          "type": "div",
          "key": null,
          "ref": null,
          "props": {
            "className": "sample enumeration-state gen dynamic",
            "children": [
              {
                "type": "input",
                "key": null,
                "ref": null,
                "props": {
                  "id": "tag-value-1",
                  "type": "text",
                  "className": "form-control tag-plate"
                },
                "_owner": null,
                "_store": {}
              },
              {
                "type": "span",
                "key": null,
                "ref": null,
                "props": {
                  "className": "add-tag pointer",
                  "children": "+"
                },
                "_owner": null,
                "_store": {}
              }
            ]
          },
          "_owner": null,
          "_store": {}
        },
        {
          "type": "div",
          "key": null,
          "ref": null,
          "props": {
            "className": "sample free form-state gen dynamic",
            "children": [
              {
                "type": "input",
                "key": null,
                "ref": null,
                "props": {
                  "id": "tag-value-2",
                  "type": "text",
                  "className": "form-control tag-plate"
                },
                "_owner": null,
                "_store": {}
              },
              {
                "type": "span",
                "key": null,
                "ref": null,
                "props": {
                  "className": "add-tag pointer",
                  "children": "+"
                },
                "_owner": null,
                "_store": {}
              }
            ]
          },
          "_owner": null,
          "_store": {}
        },
        {
          "type": "div",
          "key": null,
          "ref": null,
          "props": {
            "className": "sample command-state gen dynamic",
            "children": [
              {
                "type": "input",
                "key": null,
                "ref": null,
                "props": {
                  "id": "tag-value-3",
                  "type": "text",
                  "className": "form-control tag-plate"
                },
                "_owner": null,
                "_store": {}
              },
              {
                "type": "span",
                "key": null,
                "ref": null,
                "props": {
                  "className": "add-tag pointer",
                  "children": "+"
                },
                "_owner": null,
                "_store": {}
              }
            ]
          },
          "_owner": null,
          "_store": {}
        },
        {
          "type": "span",
          "key": null,
          "ref": null,
          "props": {
            "children": "This will be filled in automatically"
          },
          "_owner": null,
          "_store": {}
        }
      ],
      "sensors": [
        "motion",
        "present",
        "tripwire"
      ]
    },
    {
      "accountId": "",
      "thingTypeId": "",
      "id": "bf1de9a7-959f-496a-88d1-b0bbdb680d7c",
      "name": "gfjh",
      "parent": "light",
      "category": "color",
      "description": "vhh",
      "states": [
        {
          "name": "brightness",
          "typeValues": [
            "0",
            "100"
          ]
        },
        {
          "name": "color",
          "typeValues": [
            "red",
            "blue",
            "green"
          ]
        },
        {
          "name": "status",
          "typeValues": [
            "on"
          ]
        }
      ],
      "stateTypesElements": [
        {
          "type": "div",
          "key": null,
          "ref": null,
          "props": {
            "className": "brightness-state dynamic",
            "children": [
              {
                "type": "input",
                "key": null,
                "ref": null,
                "props": {
                  "type": "number",
                  "min": "0",
                  "placeholder": "min",
                  "className": "form-control min-brightness"
                },
                "_owner": null,
                "_store": {}
              },
              {
                "type": "span",
                "key": null,
                "ref": null,
                "props": {
                  "className": "form-control",
                  "children": " to "
                },
                "_owner": null,
                "_store": {}
              },
              {
                "type": "input",
                "key": null,
                "ref": null,
                "props": {
                  "type": "number",
                  "min": "0",
                  "placeholder": "max",
                  "className": "form-control max-brightness"
                },
                "_owner": null,
                "_store": {}
              }
            ]
          },
          "_owner": null,
          "_store": {}
        },
        {
          "type": "div",
          "key": null,
          "ref": null,
          "props": {
            "className": "color-state gen dynamic",
            "children": [
              {
                "type": "input",
                "key": null,
                "ref": null,
                "props": {
                  "id": "tag-value-1",
                  "type": "text",
                  "className": "form-control tag-plate"
                },
                "_owner": null,
                "_store": {}
              },
              {
                "type": "span",
                "key": null,
                "ref": null,
                "props": {
                  "className": "add-tag pointer",
                  "children": "+"
                },
                "_owner": null,
                "_store": {}
              }
            ]
          },
          "_owner": null,
          "_store": {}
        },
        {
          "type": "div",
          "key": null,
          "ref": null,
          "props": {
            "className": "status-state gen dynamic",
            "children": [
              {
                "type": "input",
                "key": null,
                "ref": null,
                "props": {
                  "id": "tag-value-2",
                  "type": "text",
                  "className": "form-control tag-plate"
                },
                "_owner": null,
                "_store": {}
              },
              {
                "type": "span",
                "key": null,
                "ref": null,
                "props": {
                  "className": "add-tag pointer",
                  "children": "+"
                },
                "_owner": null,
                "_store": {}
              }
            ]
          },
          "_owner": null,
          "_store": {}
        }
      ],
      "sensors": [
        "accelerate",
        "acceleratex"
      ]
    },
    {
      "accountId": "",
      "thingTypeId": "",
      "id": "f08b15c4-b48d-4966-9eb5-44536010afa0",
      "name": "test123",
      "parent": "light",
      "category": "color",
      "description": "testing",
      "states": [
        {
          "name": "flashpattern",
          "typeValues": [
            "t",
            "e",
            "s",
            "t"
          ]
        }
      ],
      "stateTypesElements": [
        {
          "type": "div",
          "key": null,
          "ref": null,
          "props": {
            "className": "flashpattern-state gen dynamic",
            "children": {
              "key": null,
              "ref": null,
              "props": {
                "suggestions": [
                  "Banana",
                  "Mango",
                  "Pear",
                  "Apricot"
                ]
              },
              "_owner": null,
              "_store": {}
            }
          },
          "_owner": null,
          "_store": {}
        }
      ],
      "sensors": []
    },
    {
      "accountId": "",
      "thingTypeId": "",
      "id": "8c65c01e-9c52-4726-bade-c38a93b346c5",
      "name": "test123",
      "parent": "light",
      "category": "color",
      "description": "testing",
      "states": [
        {
          "name": "flashpattern",
          "typeValues": [
            "t",
            "e",
            "s",
            "t"
          ]
        }
      ],
      "stateTypesElements": [
        {
          "type": "div",
          "key": null,
          "ref": null,
          "props": {
            "className": "flashpattern-state gen dynamic",
            "children": {
              "key": null,
              "ref": null,
              "props": {
                "suggestions": [
                  "Banana",
                  "Mango",
                  "Pear",
                  "Apricot"
                ]
              },
              "_owner": null,
              "_store": {}
            }
          },
          "_owner": null,
          "_store": {}
        }
      ],
      "sensors": []
    },
    {
      "accountId": "",
      "thingTypeId": "",
      "id": "d7b2f9e9-047e-4637-8b4a-8b7bf05e1956",
      "name": "fgfdgdfg",
      "parent": [
        "- none -",
        "light",
        "switch",
        "smartlight"
      ],
      "category": [
        "- none -",
        "color",
        "light"
      ],
      "description": "",
      "states": [
        {
          "name": "flashpattern",
          "typeValues": [
            "dfs",
            "jkj",
            "fghgf",
            "jhhj",
            "fdgd"
          ]
        }
      ],
      "stateTypesElements": [
        {
          "type": "div",
          "key": null,
          "ref": null,
          "props": {
            "className": "flashpattern-state gen dynamic",
            "children": {
              "key": null,
              "ref": null,
              "props": {
                "suggestions": [
                  "Banana",
                  "Mango",
                  "Pear",
                  "Apricot"
                ]
              },
              "_owner": null,
              "_store": {}
            }
          },
          "_owner": null,
          "_store": {}
        }
      ],
      "sensors": []
    }
  ],
  "devices": [
    {
      "virtualDeviceId": "a325a7e5-e128-4103-88b3-ce612eb985ac",
      "deviceType": "Starter Kit",
      "name": "Philips",
      "things": [
        {
          "thingCatagory": "sensor",
          "thingCatagoryType": "Light",
          "thingType": "sen",
          "id": "1",
          "virtualId": "9fcfe320-c07b-11e5-9aef-119f0f2de14d",
          "actions": null,
          "description": "Hue light that can change color, saturation, and brightness",
          "name": "Philips",
          "attributes": {}
        },
        {
          "thingCatagory": "sensor",
          "thingCatagoryType": "Light",
          "thingType": "sen",
          "id": "2",
          "virtualId": "9fd190d0-c07b-11e5-9aef-119f0f2de14d",
          "actions": null,
          "description": "Hue light that can change color, saturation, and brightness",
          "name": "Philips",
          "attributes": {}
        },
        {
          "thingCatagory": "sensor",
          "thingCatagoryType": "Light",
          "thingType": "sen",
          "id": "3",
          "virtualId": "9fd31770-c07b-11e5-9aef-119f0f2de14d",
          "actions": null,
          "description": "Hue light that can change color, saturation, and brightness",
          "name": "Philips",
          "attributes": {}
        },
        {
          "thingCatagory": "actuator",
          "thingCatagoryType": "Light",
          "thingType": "lt",
          "id": "1",
          "virtualId": "9fd4c520-c07b-11e5-9aef-119f0f2de14d",
          "actions": [
            "on",
            "off",
            "dim",
            "changeColor",
            "flashOn",
            "flashOff"
          ],
          "description": "Hue light that can change color, saturation, and brightness",
          "name": "Philips",
          "attributes": {}
        },
        {
          "thingCatagory": "actuator",
          "thingCatagoryType": "Light",
          "thingType": "lt",
          "id": "2",
          "virtualId": "9fd624b0-c07b-11e5-9aef-119f0f2de14d",
          "actions": [
            "on",
            "off",
            "dim",
            "changeColor",
            "flashOn",
            "flashOff"
          ],
          "description": "Hue light that can change color, saturation, and brightness",
          "name": "Philips",
          "attributes": {}
        },
        {
          "thingCatagory": "actuator",
          "thingCatagoryType": "Light",
          "thingType": "lt",
          "id": "3",
          "virtualId": "9fd78440-c07b-11e5-9aef-119f0f2de14d",
          "actions": [
            "on",
            "off",
            "dim",
            "changeColor",
            "flashOn",
            "flashOff"
          ],
          "description": "Hue light that can change color, saturation, and brightness",
          "name": "Philips",
          "attributes": {}
        }
      ],
      "extendedAttributes": null,
      "oem": "Philips"
    },
    {
      "virtualDeviceId": "67c830f9-44d3-4a1d-b176-b982a1a66a73",
      "deviceType": "dimLightSensor",
      "name": "Particle",
      "things": [
        {
          "thingCatagory": "sensor",
          "thingCatagoryType": "Light",
          "thingType": "sen",
          "id": "1",
          "virtualId": "9fba5f50-c07b-11e5-9aef-119f0f2de14d",
          "actions": null,
          "description": "dimmable light sensor send data as event to particle platform",
          "name": "Particle",
          "attributes": {}
        },
        {
          "thingCatagory": "actuator",
          "thingCatagoryType": "Light",
          "thingType": "lt",
          "id": "1",
          "virtualId": "9fbc0d00-c07b-11e5-9aef-119f0f2de14d",
          "actions": [
            "on",
            "off",
            "dim"
          ],
          "description": "unit with dimmable light and a light sensor",
          "name": "Particle",
          "attributes": {}
        }
      ],
      "extendedAttributes": null,
      "oem": "Particle"
    },
    {
      "virtualDeviceId": "9d58a4a0-c854-430e-8b0a-dec8c7116795",
      "deviceType": "parkingPresent",
      "name": "Particle",
      "things": [
        {
          "thingCatagory": "sensor",
          "thingCatagoryType": "Distance",
          "thingType": "sen",
          "id": "1",
          "virtualId": "9fe40760-c07b-11e5-9aef-119f0f2de14d",
          "actions": null,
          "description": "distance sensor to detect if car is present at entrance/exit of garage",
          "name": "Particle",
          "attributes": {}
        },
        {
          "thingCatagory": "actuator",
          "thingCatagoryType": "Switch",
          "thingType": "n/a",
          "id": "1",
          "virtualId": "9fe5b510-c07b-11e5-9aef-119f0f2de14d",
          "actions": [
            "on",
            "off"
          ],
          "description": "parking space entrance/exit",
          "name": "Particle",
          "attributes": {}
        }
      ],
      "extendedAttributes": null,
      "oem": "Particle"
    },
    {
      "virtualDeviceId": "7a2f9938-6cbd-49d7-aec1-8aacf53cf811",
      "deviceType": "dweetLightSensor",
      "name": "Particle",
      "things": [
        {
          "thingCatagory": "sensor",
          "thingCatagoryType": "Light",
          "thingType": "sen",
          "id": "1",
          "virtualId": "9fafb0f0-c07b-11e5-9aef-119f0f2de14d",
          "actions": null,
          "description": "light sensor send data to dweet platform",
          "name": "Particle",
          "attributes": {}
        },
        {
          "thingCatagory": "actuator",
          "thingCatagoryType": "Light",
          "thingType": "lt",
          "id": "1",
          "virtualId": "9fb27010-c07b-11e5-9aef-119f0f2de14d",
          "actions": [
            "on",
            "off"
          ],
          "description": "Firmware lightSensorController controlling light on board",
          "name": "Particle",
          "attributes": {}
        }
      ],
      "extendedAttributes": null,
      "oem": "Particle"
    },
    {
      "virtualDeviceId": "af36c550-d248-41e9-941b-c1445956ea32",
      "deviceType": "motionSensor",
      "name": "Particle",
      "things": [
        {
          "thingCatagory": "sensor",
          "thingCatagoryType": "Motion",
          "thingType": "sen",
          "id": "1",
          "virtualId": "9fb68ec0-c07b-11e5-9aef-119f0f2de14d",
          "actions": null,
          "description": "motion sensor send data as event to particle platform",
          "name": "Particle",
          "attributes": {}
        }
      ],
      "extendedAttributes": null,
      "oem": "Particle"
    },
    {
      "virtualDeviceId": "074d5595-7d86-401d-ab40-1f4e7d2d3e7c",
      "deviceType": "parkingOccupy",
      "name": "Particle",
      "things": [
        {
          "thingCatagory": "sensor",
          "thingCatagoryType": "Distance",
          "thingType": "sen",
          "id": "1",
          "virtualId": "9fdba2f0-c07b-11e5-9aef-119f0f2de14d",
          "actions": null,
          "description": "distance sensor to detect if parking slot is empty",
          "name": "Particle",
          "attributes": {}
        },
        {
          "thingCatagory": "sensor",
          "thingCatagoryType": "Distance",
          "thingType": "sen",
          "id": "2",
          "virtualId": "9fdd2990-c07b-11e5-9aef-119f0f2de14d",
          "actions": null,
          "description": "distance sensor to detect if parking slot is empty",
          "name": "Particle",
          "attributes": {}
        },
        {
          "thingCatagory": "actuator",
          "thingCatagoryType": "Light",
          "thingType": "lt",
          "id": "2",
          "virtualId": "9fe0ac00-c07b-11e5-9aef-119f0f2de14d",
          "actions": [
            "on",
            "off",
            "changeColor",
            "flashOn",
            "flashOff"
          ],
          "description": "parking space light",
          "name": "Particle",
          "attributes": {}
        }
      ],
      "extendedAttributes": null,
      "oem": "Particle"
    },
    {
      "virtualDeviceId": "7912e0ad-f404-4580-ae27-9f6415cc274f",
      "deviceType": "idsRuleDriven",
      "name": "Particle",
      "things": [
        {
          "thingCatagory": "sensor",
          "thingCatagoryType": "Light",
          "thingType": "sen",
          "id": "1",
          "virtualId": "9fbf6860-c07b-11e5-9aef-119f0f2de14d",
          "actions": null,
          "description": "ids platform manually feed sensor data to testing rule driven",
          "name": "Particle",
          "attributes": {}
        }
      ],
      "extendedAttributes": null,
      "oem": "Particle"
    },
    {
      "virtualDeviceId": "c24a7a56-9c4d-4b97-9217-fe183c86d593",
      "deviceType": "particlePowerOutlet",
      "name": "Particle",
      "things": [
        {
          "thingCatagory": "sensor",
          "thingCatagoryType": "Light",
          "thingType": "sen",
          "id": "1",
          "virtualId": "9fc2ead0-c07b-11e5-9aef-119f0f2de14d",
          "actions": null,
          "description": "light sensor send data to ids platform",
          "name": "Particle",
          "attributes": {}
        },
        {
          "thingCatagory": "actuator",
          "thingCatagoryType": "Light",
          "thingType": "lt",
          "id": "1",
          "virtualId": "9fc55bd0-c07b-11e5-9aef-119f0f2de14d",
          "actions": [
            "on",
            "off"
          ],
          "description": "Firmware particlePowerOutletControl controlling power outlet",
          "name": "Particle",
          "attributes": {}
        }
      ],
      "extendedAttributes": null,
      "oem": "Particle"
    },
    {
      "virtualDeviceId": "4d9cc860-dd32-4249-a7b0-6fa45b035362",
      "deviceType": "parkingLight",
      "name": "RaspberryLight",
      "things": [
        {
          "thingCatagory": "sensor",
          "thingCatagoryType": "Chemical",
          "thingType": "sen",
          "id": "Alcohol001",
          "virtualId": "a0540740-c07b-11e5-9aef-119f0f2de14d",
          "actions": null,
          "description": "Alcohol sensor at the entrance",
          "name": "RaspberryLight",
          "attributes": {}
        },
        {
          "thingCatagory": "actuator",
          "thingCatagoryType": "Speaker",
          "thingType": "spk",
          "id": "Speaker001",
          "virtualId": "a0a13ce0-c07b-11e5-9aef-119f0f2de14d",
          "actions": [
            "on",
            "off",
            "play"
          ],
          "description": "speaker in garage",
          "name": "RaspberryLight",
          "attributes": {}
        }
      ],
      "extendedAttributes": null,
      "oem": "RaspberryLight"
    },
    {
      "virtualDeviceId": "493eeb7f-b7ca-4d27-b2a0-8ef209ff2f08",
      "deviceType": "parkingLight2",
      "name": "RaspberryLight",
      "things": [],
      "extendedAttributes": null,
      "oem": "RaspberryLight"
    },
    {
      "virtualDeviceId": "40e0f8eb-75bb-4068-b592-2841f4ac259d",
      "deviceType": "raspberryPiCamera",
      "name": "RaspberryPI",
      "things": [
        {
          "thingCatagory": "sensor",
          "thingCatagoryType": "Other",
          "thingType": "sen",
          "id": "1",
          "virtualId": "9fc97a80-c07b-11e5-9aef-119f0f2de14d",
          "actions": null,
          "description": "capture image url",
          "name": "RaspberryPI",
          "attributes": {}
        },
        {
          "thingCatagory": "actuator",
          "thingCatagoryType": "Camera",
          "thingType": "camera",
          "id": "1",
          "virtualId": "9fcc39a0-c07b-11e5-9aef-119f0f2de14d",
          "actions": [
            "takePicture"
          ],
          "description": "camera take picture",
          "name": "RaspberryPI",
          "attributes": {}
        }
      ],
      "extendedAttributes": null,
      "oem": "RaspberryPI"
    },
    {
      "virtualDeviceId": "89ce1099-dd3a-4ad6-8672-00b349d69179",
      "deviceType": "smartParking",
      "name": "VideoNext",
      "things": [
        {
          "thingCatagory": "sensor",
          "thingCatagoryType": "Presence",
          "thingType": "sen",
          "id": "103",
          "virtualId": "9fe9d3c0-c07b-11e5-9aef-119f0f2de14d",
          "actions": null,
          "description": "Video Next camera aim on entrance taking license plate number",
          "name": "VideoNext",
          "attributes": {}
        },
        {
          "thingCatagory": "sensor",
          "thingCatagoryType": "Tripwire",
          "thingType": "sen",
          "id": "InsideGarage",
          "virtualId": "9fec6bd0-c07b-11e5-9aef-119f0f2de14d",
          "actions": null,
          "description": "Video Next camera on drive way",
          "name": "VideoNext",
          "attributes": {}
        },
        {
          "thingCatagory": "sensor",
          "thingCatagoryType": "Tripwire",
          "thingType": "sen",
          "id": "WrongWay001",
          "virtualId": "9fedf270-c07b-11e5-9aef-119f0f2de14d",
          "actions": null,
          "description": "Video Next camera on drive way",
          "name": "VideoNext",
          "attributes": {}
        },
        {
          "thingCatagory": "sensor",
          "thingCatagoryType": "Tripwire",
          "thingType": "sen",
          "id": "WrongWay002",
          "virtualId": "9ff174e0-c07b-11e5-9aef-119f0f2de14d",
          "actions": null,
          "description": "Video Next camera on drive way",
          "name": "VideoNext",
          "attributes": {}
        },
        {
          "thingCatagory": "sensor",
          "thingCatagoryType": "Tripwire",
          "thingType": "sen",
          "id": "WrongWay003",
          "virtualId": "9ff2fb80-c07b-11e5-9aef-119f0f2de14d",
          "actions": null,
          "description": "Video Next camera on drive way",
          "name": "VideoNext",
          "attributes": {}
        },
        {
          "thingCatagory": "sensor",
          "thingCatagoryType": "Tripwire",
          "thingType": "sen",
          "id": "WrongWay004",
          "virtualId": "9ff4a930-c07b-11e5-9aef-119f0f2de14d",
          "actions": null,
          "description": "Video Next camera on drive way",
          "name": "VideoNext",
          "attributes": {}
        },
        {
          "thingCatagory": "sensor",
          "thingCatagoryType": "Tripwire",
          "thingType": "sen",
          "id": "WrongWay005",
          "virtualId": "9ff656e0-c07b-11e5-9aef-119f0f2de14d",
          "actions": null,
          "description": "Video Next camera on drive way",
          "name": "VideoNext",
          "attributes": {}
        },
        {
          "thingCatagory": "sensor",
          "thingCatagoryType": "Tripwire",
          "thingType": "sen",
          "id": "LeftRearQuadrant",
          "virtualId": "9ff7b670-c07b-11e5-9aef-119f0f2de14d",
          "actions": null,
          "description": "Video Next camera on right aim on quadrant",
          "name": "VideoNext",
          "attributes": {}
        },
        {
          "thingCatagory": "sensor",
          "thingCatagoryType": "Tripwire",
          "thingType": "sen",
          "id": "RightRearQuadrant",
          "virtualId": "9ff93d10-c07b-11e5-9aef-119f0f2de14d",
          "actions": null,
          "description": "Video Next camera on right aim on quadrant",
          "name": "VideoNext",
          "attributes": {}
        },
        {
          "thingCatagory": "sensor",
          "thingCatagoryType": "Tripwire",
          "thingType": "sen",
          "id": "RightFrontQuadrant",
          "virtualId": "9ffac3b0-c07b-11e5-9aef-119f0f2de14d",
          "actions": null,
          "description": "Video Next camera on right aim on quadrant",
          "name": "VideoNext",
          "attributes": {}
        },
        {
          "thingCatagory": "sensor",
          "thingCatagoryType": "Tripwire",
          "thingType": "sen",
          "id": "LeftFrontQuadrant",
          "virtualId": "9ffc2340-c07b-11e5-9aef-119f0f2de14d",
          "actions": null,
          "description": "Video Next camera on right aim on quadrant",
          "name": "VideoNext",
          "attributes": {}
        },
        {
          "thingCatagory": "sensor",
          "thingCatagoryType": "Tripwire",
          "thingType": "sen",
          "id": "CenterQuadrant",
          "virtualId": "9ffda9e0-c07b-11e5-9aef-119f0f2de14d",
          "actions": null,
          "description": "Video Next camera on right aim on quadrant",
          "name": "VideoNext",
          "attributes": {}
        },
        {
          "thingCatagory": "sensor",
          "thingCatagoryType": "Tripwire",
          "thingType": "sen",
          "id": "ParkingSpace000",
          "virtualId": "9fff0970-c07b-11e5-9aef-119f0f2de14d",
          "actions": null,
          "description": "Video Next camera on right aim on parking spots",
          "name": "VideoNext",
          "attributes": {}
        },
        {
          "thingCatagory": "sensor",
          "thingCatagoryType": "Tripwire",
          "thingType": "sen",
          "id": "ParkingSpace001",
          "virtualId": "a0009010-c07b-11e5-9aef-119f0f2de14d",
          "actions": null,
          "description": "Video Next camera on right aim on parking spots",
          "name": "VideoNext",
          "attributes": {}
        },
        {
          "thingCatagory": "sensor",
          "thingCatagoryType": "Tripwire",
          "thingType": "sen",
          "id": "ParkingSpace002",
          "virtualId": "a00216b0-c07b-11e5-9aef-119f0f2de14d",
          "actions": null,
          "description": "Video Next camera on right aim on parking spots",
          "name": "VideoNext",
          "attributes": {}
        },
        {
          "thingCatagory": "sensor",
          "thingCatagoryType": "Tripwire",
          "thingType": "sen",
          "id": "ParkingSpace003",
          "virtualId": "a003c460-c07b-11e5-9aef-119f0f2de14d",
          "actions": null,
          "description": "Video Next camera on right aim on parking spots",
          "name": "VideoNext",
          "attributes": {}
        },
        {
          "thingCatagory": "sensor",
          "thingCatagoryType": "Tripwire",
          "thingType": "sen",
          "id": "ParkingSpace004",
          "virtualId": "a00523f0-c07b-11e5-9aef-119f0f2de14d",
          "actions": null,
          "description": "Video Next camera on right aim on parking spots",
          "name": "VideoNext",
          "attributes": {}
        },
        {
          "thingCatagory": "sensor",
          "thingCatagoryType": "Tripwire",
          "thingType": "sen",
          "id": "ParkingSpace005",
          "virtualId": "a006aa90-c07b-11e5-9aef-119f0f2de14d",
          "actions": null,
          "description": "Video Next camera on right aim on parking spots",
          "name": "VideoNext",
          "attributes": {}
        },
        {
          "thingCatagory": "sensor",
          "thingCatagoryType": "Tripwire",
          "thingType": "sen",
          "id": "ParkingSpace006",
          "virtualId": "a0083130-c07b-11e5-9aef-119f0f2de14d",
          "actions": null,
          "description": "Video Next camera on right aim on parking spots",
          "name": "VideoNext",
          "attributes": {}
        },
        {
          "thingCatagory": "sensor",
          "thingCatagoryType": "Tripwire",
          "thingType": "sen",
          "id": "ParkingSpace007",
          "virtualId": "a00a7b20-c07b-11e5-9aef-119f0f2de14d",
          "actions": null,
          "description": "Video Next camera on right aim on parking spots",
          "name": "VideoNext",
          "attributes": {}
        },
        {
          "thingCatagory": "sensor",
          "thingCatagoryType": "Tripwire",
          "thingType": "sen",
          "id": "ParkingSpace008",
          "virtualId": "a00c01c0-c07b-11e5-9aef-119f0f2de14d",
          "actions": null,
          "description": "Video Next camera on right aim on parking spots",
          "name": "VideoNext",
          "attributes": {}
        },
        {
          "thingCatagory": "sensor",
          "thingCatagoryType": "Tripwire",
          "thingType": "sen",
          "id": "ParkingSpace009",
          "virtualId": "a00d8860-c07b-11e5-9aef-119f0f2de14d",
          "actions": null,
          "description": "Video Next camera on right aim on parking spots",
          "name": "VideoNext",
          "attributes": {}
        },
        {
          "thingCatagory": "sensor",
          "thingCatagoryType": "Tripwire",
          "thingType": "sen",
          "id": "ParkingSpace010",
          "virtualId": "a00f3610-c07b-11e5-9aef-119f0f2de14d",
          "actions": null,
          "description": "Video Next camera on right aim on parking spots",
          "name": "VideoNext",
          "attributes": {}
        },
        {
          "thingCatagory": "sensor",
          "thingCatagoryType": "Tripwire",
          "thingType": "sen",
          "id": "ParkingSpace011",
          "virtualId": "a0126a60-c07b-11e5-9aef-119f0f2de14d",
          "actions": null,
          "description": "Video Next camera on right aim on parking spots",
          "name": "VideoNext",
          "attributes": {}
        },
        {
          "thingCatagory": "sensor",
          "thingCatagoryType": "Tripwire",
          "thingType": "sen",
          "id": "TripWire001",
          "virtualId": "a0146630-c07b-11e5-9aef-119f0f2de14d",
          "actions": null,
          "description": "Video Next camera aim on entrance",
          "name": "VideoNext",
          "attributes": {}
        },
        {
          "thingCatagory": "sensor",
          "thingCatagoryType": "Tripwire",
          "thingType": "sen",
          "id": "TripWire002",
          "virtualId": "a015c5c0-c07b-11e5-9aef-119f0f2de14d",
          "actions": null,
          "description": "Video Next camera aim on exit",
          "name": "VideoNext",
          "attributes": {}
        },
        {
          "thingCatagory": "actuator",
          "thingCatagoryType": "Camera",
          "thingType": "camera",
          "id": "105",
          "virtualId": "a0177370-c07b-11e5-9aef-119f0f2de14d",
          "actions": [
            "takePicture"
          ],
          "description": "parking garage camera",
          "name": "VideoNext",
          "attributes": {}
        },
        {
          "thingCatagory": "actuator",
          "thingCatagoryType": "Camera",
          "thingType": "camera",
          "id": "103",
          "virtualId": "a0194830-c07b-11e5-9aef-119f0f2de14d",
          "actions": [
            "takePicture"
          ],
          "description": "parking garage camera",
          "name": "VideoNext",
          "attributes": {}
        },
        {
          "thingCatagory": "actuator",
          "thingCatagoryType": "Camera",
          "thingType": "camera",
          "id": "107",
          "virtualId": "a01aced0-c07b-11e5-9aef-119f0f2de14d",
          "actions": [
            "takePicture"
          ],
          "description": "parking garage camera",
          "name": "VideoNext",
          "attributes": {}
        }
      ],
      "extendedAttributes": null,
      "oem": "VideoNext"
    },
    {
      "virtualDeviceId": "b55ca805-d004-42ef-b5e2-55d03fee403f",
      "deviceType": "smartParking",
      "name": "VideoNext",
      "things": [
        {
          "thingCatagory": "sensor",
          "thingCatagoryType": "Presence",
          "thingType": "sen",
          "id": "103",
          "virtualId": "a01e2a30-c07b-11e5-9aef-119f0f2de14d",
          "actions": null,
          "description": "Video Next camera aim on entrance taking license plate number",
          "name": "VideoNext",
          "attributes": {}
        },
        {
          "thingCatagory": "sensor",
          "thingCatagoryType": "Tripwire",
          "thingType": "sen",
          "id": "InsideGarage",
          "virtualId": "a01fb0d0-c07b-11e5-9aef-119f0f2de14d",
          "actions": null,
          "description": "Video Next camera on drive way",
          "name": "VideoNext",
          "attributes": {}
        },
        {
          "thingCatagory": "sensor",
          "thingCatagoryType": "Tripwire",
          "thingType": "sen",
          "id": "WrongWay001",
          "virtualId": "a021fac0-c07b-11e5-9aef-119f0f2de14d",
          "actions": null,
          "description": "Video Next camera on drive way",
          "name": "VideoNext",
          "attributes": {}
        },
        {
          "thingCatagory": "sensor",
          "thingCatagoryType": "Tripwire",
          "thingType": "sen",
          "id": "WrongWay002",
          "virtualId": "a0238160-c07b-11e5-9aef-119f0f2de14d",
          "actions": null,
          "description": "Video Next camera on drive way",
          "name": "VideoNext",
          "attributes": {}
        },
        {
          "thingCatagory": "sensor",
          "thingCatagoryType": "Tripwire",
          "thingType": "sen",
          "id": "WrongWay003",
          "virtualId": "a0261970-c07b-11e5-9aef-119f0f2de14d",
          "actions": null,
          "description": "Video Next camera on drive way",
          "name": "VideoNext",
          "attributes": {}
        },
        {
          "thingCatagory": "sensor",
          "thingCatagoryType": "Tripwire",
          "thingType": "sen",
          "id": "WrongWay004",
          "virtualId": "a0277900-c07b-11e5-9aef-119f0f2de14d",
          "actions": null,
          "description": "Video Next camera on drive way",
          "name": "VideoNext",
          "attributes": {}
        },
        {
          "thingCatagory": "sensor",
          "thingCatagoryType": "Tripwire",
          "thingType": "sen",
          "id": "WrongWay005",
          "virtualId": "a02a1110-c07b-11e5-9aef-119f0f2de14d",
          "actions": null,
          "description": "Video Next camera on drive way",
          "name": "VideoNext",
          "attributes": {}
        },
        {
          "thingCatagory": "sensor",
          "thingCatagoryType": "Tripwire",
          "thingType": "sen",
          "id": "LeftRearQuadrant",
          "virtualId": "a02b97b0-c07b-11e5-9aef-119f0f2de14d",
          "actions": null,
          "description": "Video Next camera on right aim on quadrant",
          "name": "VideoNext",
          "attributes": {}
        },
        {
          "thingCatagory": "sensor",
          "thingCatagoryType": "Tripwire",
          "thingType": "sen",
          "id": "RightRearQuadrant",
          "virtualId": "a02fb660-c07b-11e5-9aef-119f0f2de14d",
          "actions": null,
          "description": "Video Next camera on right aim on quadrant",
          "name": "VideoNext",
          "attributes": {}
        },
        {
          "thingCatagory": "sensor",
          "thingCatagoryType": "Tripwire",
          "thingType": "sen",
          "id": "RightFrontQuadrant",
          "virtualId": "a031d940-c07b-11e5-9aef-119f0f2de14d",
          "actions": null,
          "description": "Video Next camera on right aim on quadrant",
          "name": "VideoNext",
          "attributes": {}
        },
        {
          "thingCatagory": "sensor",
          "thingCatagoryType": "Tripwire",
          "thingType": "sen",
          "id": "LeftFrontQuadrant",
          "virtualId": "a03386f0-c07b-11e5-9aef-119f0f2de14d",
          "actions": null,
          "description": "Video Next camera on right aim on quadrant",
          "name": "VideoNext",
          "attributes": {}
        },
        {
          "thingCatagory": "sensor",
          "thingCatagoryType": "Tripwire",
          "thingType": "sen",
          "id": "CenterQuadrant",
          "virtualId": "a035f7f0-c07b-11e5-9aef-119f0f2de14d",
          "actions": null,
          "description": "Video Next camera on right aim on quadrant",
          "name": "VideoNext",
          "attributes": {}
        },
        {
          "thingCatagory": "sensor",
          "thingCatagoryType": "Tripwire",
          "thingType": "sen",
          "id": "ParkingSpace000",
          "virtualId": "a0377e90-c07b-11e5-9aef-119f0f2de14d",
          "actions": null,
          "description": "Video Next camera on right aim on parking spots",
          "name": "VideoNext",
          "attributes": {}
        },
        {
          "thingCatagory": "sensor",
          "thingCatagoryType": "Tripwire",
          "thingType": "sen",
          "id": "ParkingSpace001",
          "virtualId": "a039c880-c07b-11e5-9aef-119f0f2de14d",
          "actions": null,
          "description": "Video Next camera on right aim on parking spots",
          "name": "VideoNext",
          "attributes": {}
        },
        {
          "thingCatagory": "sensor",
          "thingCatagoryType": "Tripwire",
          "thingType": "sen",
          "id": "ParkingSpace002",
          "virtualId": "a03bc450-c07b-11e5-9aef-119f0f2de14d",
          "actions": null,
          "description": "Video Next camera on right aim on parking spots",
          "name": "VideoNext",
          "attributes": {}
        },
        {
          "thingCatagory": "sensor",
          "thingCatagoryType": "Tripwire",
          "thingType": "sen",
          "id": "ParkingSpace003",
          "virtualId": "a03d4af0-c07b-11e5-9aef-119f0f2de14d",
          "actions": null,
          "description": "Video Next camera on right aim on parking spots",
          "name": "VideoNext",
          "attributes": {}
        },
        {
          "thingCatagory": "sensor",
          "thingCatagoryType": "Tripwire",
          "thingType": "sen",
          "id": "ParkingSpace004",
          "virtualId": "a03ed190-c07b-11e5-9aef-119f0f2de14d",
          "actions": null,
          "description": "Video Next camera on right aim on parking spots",
          "name": "VideoNext",
          "attributes": {}
        },
        {
          "thingCatagory": "sensor",
          "thingCatagoryType": "Tripwire",
          "thingType": "sen",
          "id": "ParkingSpace005",
          "virtualId": "a0403120-c07b-11e5-9aef-119f0f2de14d",
          "actions": null,
          "description": "Video Next camera on right aim on parking spots",
          "name": "VideoNext",
          "attributes": {}
        },
        {
          "thingCatagory": "sensor",
          "thingCatagoryType": "Tripwire",
          "thingType": "sen",
          "id": "ParkingSpace006",
          "virtualId": "a041b7c0-c07b-11e5-9aef-119f0f2de14d",
          "actions": null,
          "description": "Video Next camera on right aim on parking spots",
          "name": "VideoNext",
          "attributes": {}
        },
        {
          "thingCatagory": "sensor",
          "thingCatagoryType": "Tripwire",
          "thingType": "sen",
          "id": "ParkingSpace007",
          "virtualId": "a0436570-c07b-11e5-9aef-119f0f2de14d",
          "actions": null,
          "description": "Video Next camera on right aim on parking spots",
          "name": "VideoNext",
          "attributes": {}
        },
        {
          "thingCatagory": "sensor",
          "thingCatagoryType": "Tripwire",
          "thingType": "sen",
          "id": "ParkingSpace008",
          "virtualId": "a044ec10-c07b-11e5-9aef-119f0f2de14d",
          "actions": null,
          "description": "Video Next camera on right aim on parking spots",
          "name": "VideoNext",
          "attributes": {}
        },
        {
          "thingCatagory": "sensor",
          "thingCatagoryType": "Tripwire",
          "thingType": "sen",
          "id": "ParkingSpace009",
          "virtualId": "a0464ba0-c07b-11e5-9aef-119f0f2de14d",
          "actions": null,
          "description": "Video Next camera on right aim on parking spots",
          "name": "VideoNext",
          "attributes": {}
        },
        {
          "thingCatagory": "sensor",
          "thingCatagoryType": "Tripwire",
          "thingType": "sen",
          "id": "ParkingSpace010",
          "virtualId": "a047ab30-c07b-11e5-9aef-119f0f2de14d",
          "actions": null,
          "description": "Video Next camera on right aim on parking spots",
          "name": "VideoNext",
          "attributes": {}
        },
        {
          "thingCatagory": "sensor",
          "thingCatagoryType": "Tripwire",
          "thingType": "sen",
          "id": "ParkingSpace011",
          "virtualId": "a0490ac0-c07b-11e5-9aef-119f0f2de14d",
          "actions": null,
          "description": "Video Next camera on right aim on parking spots",
          "name": "VideoNext",
          "attributes": {}
        },
        {
          "thingCatagory": "sensor",
          "thingCatagoryType": "Tripwire",
          "thingType": "sen",
          "id": "TripWire001",
          "virtualId": "a04a9160-c07b-11e5-9aef-119f0f2de14d",
          "actions": null,
          "description": "Video Next camera aim on entrance",
          "name": "VideoNext",
          "attributes": {}
        },
        {
          "thingCatagory": "sensor",
          "thingCatagoryType": "Tripwire",
          "thingType": "sen",
          "id": "TripWire002",
          "virtualId": "a04c3f10-c07b-11e5-9aef-119f0f2de14d",
          "actions": null,
          "description": "Video Next camera aim on exit",
          "name": "VideoNext",
          "attributes": {}
        },
        {
          "thingCatagory": "actuator",
          "thingCatagoryType": "Camera",
          "thingType": "camera",
          "id": "105",
          "virtualId": "a04dc5b0-c07b-11e5-9aef-119f0f2de14d",
          "actions": [
            "takePicture"
          ],
          "description": "parking garage camera",
          "name": "VideoNext",
          "attributes": {}
        },
        {
          "thingCatagory": "actuator",
          "thingCatagoryType": "Camera",
          "thingType": "camera",
          "id": "103",
          "virtualId": "a04f2540-c07b-11e5-9aef-119f0f2de14d",
          "actions": [
            "takePicture"
          ],
          "description": "parking garage camera",
          "name": "VideoNext",
          "attributes": {}
        },
        {
          "thingCatagory": "actuator",
          "thingCatagoryType": "Camera",
          "thingType": "camera",
          "id": "107",
          "virtualId": "a050abe0-c07b-11e5-9aef-119f0f2de14d",
          "actions": [
            "takePicture"
          ],
          "description": "parking garage camera",
          "name": "VideoNext",
          "attributes": {}
        }
      ],
      "extendedAttributes": null,
      "oem": "VideoNext"
    }
  ]
}