[
    {
        "accountId": "eb2c8d80-d1cb-11e5-899a-a78c285e0f24",
        "sensorTypeId": "3adda990-e3fb-11e5-8a31-6538fcf5e441",
        "name": "brightness",
        "description": "Brightness Sensor"
    },
    {
        "accountId": "eb2c8d80-d1cb-11e5-899a-a78c285e0f24",
        "sensorTypeId": "4dcc01a0-e3fb-11e5-94cc-6538fcf5e441",
        "name": "motion",
        "description": "Motion Sensor"
    },
    {
        "accountId": "eb2c8d80-d1cb-11e5-899a-a78c285e0f24",
        "sensorTypeId": "58b74390-e3fb-11e5-81f1-6538fcf5e441",
        "name": "present",
        "description": "Present Sensor"
    },
    {
        "accountId": "eb2c8d80-d1cb-11e5-899a-a78c285e0f24",
        "sensorTypeId": "67c75000-e3fb-11e5-a5ac-6538fcf5e441",
        "name": "tripwire",
        "description": "Tripwire"
    },
    {
        "accountId": "eb2c8d80-d1cb-11e5-899a-a78c285e0f24",
        "sensorTypeId": "71251420-e3fb-11e5-87af-6538fcf5e441",
        "name": "distance",
        "description": "Distance Sensor"
    },
    {
        "accountId": "eb2c8d80-d1cb-11e5-899a-a78c285e0f24",
        "sensorTypeId": "7bad9ca0-e3fb-11e5-b69a-6538fcf5e441",
        "name": "temperature",
        "description": "Temperature Sensor"
    },
    {
        "accountId": "eb2c8d80-d1cb-11e5-899a-a78c285e0f24",
        "sensorTypeId": "69028040-e0a7-11e5-8bf3-63ff56235dbf",
        "name": "moisture",
        "description": "Moisture Sensor"
    },
    {
        "accountId": "eb2c8d80-d1cb-11e5-899a-a78c285e0f24",
        "sensorTypeId": "73edc230-e0a7-11e5-992e-63ff56235dbf",
        "name": "gas",
        "description": "Gas Sensor"
    },
    {
        "accountId": "eb2c8d80-d1cb-11e5-899a-a78c285e0f24",
        "sensorTypeId": "7de50730-e0a7-11e5-95fd-63ff56235dbf",
        "name": "velocity",
        "description": "Speed Sensor"
    },
    {
        "accountId": "eb2c8d80-d1cb-11e5-899a-a78c285e0f24",
        "sensorTypeId": "e75dc2b0-e0a7-11e5-bdd4-63ff56235dbf",
        "name": "accelerate",
        "description": "Accelerate Sensor"
    },
    {
        "accountId": "eb2c8d80-d1cb-11e5-899a-a78c285e0f24",
        "sensorTypeId": "f4d35900-e0a7-11e5-bba0-63ff56235dbf",
        "name": "weight",
        "description": "Weight Sensor"
    },
    {
        "accountId": "eb2c8d80-d1cb-11e5-899a-a78c285e0f24",
        "sensorTypeId": "fed52550-e0a7-11e5-a97f-63ff56235dbf",
        "name": "pressure",
        "description": "Pressure Sensor"
    },
    {
        "accountId": "eb2c8d80-d1cb-11e5-899a-a78c285e0f24",
        "sensorTypeId": "08e06780-e0a8-11e5-988f-63ff56235dbf",
        "name": "sonic",
        "description": "Sonic Sensor"
    },
    {
        "accountId": "eb2c8d80-d1cb-11e5-899a-a78c285e0f24",
        "sensorTypeId": "e46fe470-d689-11e5-bcc2-63ff56235dbf",
        "name": "alcohol",
        "description": "Alcohol Sensor"
    }
]
